%YAML 1.1
%TAG !u! tag:unity3d.com,2011:
--- !u!74 &7400000
AnimationClip:
  m_ObjectHideFlags: 0
  m_PrefabParentObject: {fileID: 0}
  m_PrefabInternal: {fileID: 0}
  m_Name: Clouds
  serializedVersion: 6
  m_Legacy: 0
  m_Compressed: 0
  m_UseHighQualityCurve: 1
  m_RotationCurves: []
  m_CompressedRotationCurves: []
  m_EulerCurves: []
  m_PositionCurves:
  - curve:
      serializedVersion: 2
      m_Curve:
      - time: 0
        value: {x: 21.97, y: 4.57, z: 0.010844566}
        inSlope: {x: -4.661111, y: 0, z: 0}
        outSlope: {x: -4.661111, y: 0, z: 0}
        tangentMode: 0
      - time: 9
        value: {x: -19.98, y: 4.57, z: 0.010844566}
        inSlope: {x: -4.661111, y: 0, z: 0}
        outSlope: {x: -4.661111, y: 0, z: 0}
        tangentMode: 0
      m_PreInfinity: 2
      m_PostInfinity: 2
      m_RotationOrder: 4
    path: Clouds_1
  - curve:
      serializedVersion: 2
      m_Curve:
      - time: 0
        value: {x: 26.23, y: 2.43, z: 0.010844566}
        inSlope: {x: -4.7129197, y: 0, z: 0}
        outSlope: {x: -4.7129197, y: 0, z: 0}
        tangentMode: 0
      - time: 9.416667
        value: {x: -18.15, y: 2.43, z: 0.010844566}
        inSlope: {x: -1.1782773, y: 0, z: 0}
        outSlope: {x: -1.1782773, y: 0, z: 0}
        tangentMode: 0
      - time: 10.333333
        value: {x: -15.99, y: 2.43, z: 0.010844566}
        inSlope: {x: 1.001933, y: 0, z: 0}
        outSlope: {x: 1.001933, y: 0, z: 0}
        tangentMode: 0
      - time: 11.666667
        value: {x: -16.46, y: 2.43, z: 0.010844566}
        inSlope: {x: 215.82457, y: 0, z: 0}
        outSlope: {x: 215.82457, y: 0, z: 0}
        tangentMode: 0
      - time: 11.75
        value: {x: 19.54, y: 2.43, z: 0.010844566}
        inSlope: {x: 232.26088, y: 0, z: 0}
        outSlope: {x: 232.26088, y: 0, z: 0}
        tangentMode: 0
      - time: 11.833333
        value: {x: 22.25, y: 2.43, z: 0.010844566}
        inSlope: {x: 32.520115, y: 0, z: 0}
        outSlope: {x: 32.520115, y: 0, z: 0}
        tangentMode: 0
      m_PreInfinity: 2
      m_PostInfinity: 2
      m_RotationOrder: 4
    path: Clouds_0
  - curve:
      serializedVersion: 2
      m_Curve:
      - time: 0
        value: {x: 43.15, y: -0.2411091, z: 0.010844566}
        inSlope: {x: -5.5400004, y: 0, z: 0}
        outSlope: {x: -5.5400004, y: 0, z: 0}
        tangentMode: 0
      - time: 11
        value: {x: -17.79, y: -0.2411091, z: 0.010844566}
        inSlope: {x: -5.5400004, y: 0, z: 0}
        outSlope: {x: -5.5400004, y: 0, z: 0}
        tangentMode: 0
      m_PreInfinity: 2
      m_PostInfinity: 2
      m_RotationOrder: 4
    path: Clouds_2
  - curve:
      serializedVersion: 2
      m_Curve:
      - time: 0
        value: {x: 29.52, y: -0.2411091, z: 0.010844566}
        inSlope: {x: -6.4207406, y: 0, z: 0}
        outSlope: {x: -6.4207406, y: 0, z: 0}
        tangentMode: 0
      - time: 6.75
        value: {x: -13.82, y: -0.2411091, z: 0.010844566}
        inSlope: {x: -6.4207406, y: 0, z: 0}
        outSlope: {x: -6.4207406, y: 0, z: 0}
        tangentMode: 0
      m_PreInfinity: 2
      m_PostInfinity: 2
      m_RotationOrder: 4
    path: Clouds_3
  m_ScaleCurves: []
  m_FloatCurves:
  - curve:
      serializedVersion: 2
      m_Curve:
      - time: 0
        value: 1
        inSlope: Infinity
        outSlope: Infinity
        tangentMode: 31
      - time: 11.666667
        value: 0
        inSlope: Infinity
        outSlope: Infinity
        tangentMode: 31
      - time: 11.833333
        value: 1
        inSlope: Infinity
        outSlope: Infinity
        tangentMode: 31
      m_PreInfinity: 2
      m_PostInfinity: 2
      m_RotationOrder: 4
    attribute: m_IsActive
    path: Clouds_0
    classID: 1
    script: {fileID: 0}
  - curve:
      serializedVersion: 2
      m_Curve:
      - time: 0
        value: 0.616
        inSlope: -0.05242553
        outSlope: -0.05242553
        tangentMode: 10
      - time: 11.75
        value: 0
        inSlope: 5.97381
        outSlope: 5.97381
        tangentMode: 10
      - time: 11.833333
        value: 1
        inSlope: 12.000046
        outSlope: 12.000046
        tangentMode: 10
      m_PreInfinity: 2
      m_PostInfinity: 2
      m_RotationOrder: 4
    attribute: m_Color.a
    path: Clouds_0
    classID: 212
    script: {fileID: 0}
  m_PPtrCurves:
  - curve:
    - time: 0
      value: {fileID: 0}
    attribute: m_Sprite
    path: 
    classID: 212
    script: {fileID: 0}
  m_SampleRate: 12
  m_WrapMode: 0
  m_Bounds:
    m_Center: {x: 0, y: 0, z: 0}
    m_Extent: {x: 0, y: 0, z: 0}
  m_ClipBindingConstant:
    genericBindings:
    - path: 3367508282
      attribute: 1
      script: {fileID: 0}
      classID: 4
      customType: 0
      isPPtrCurve: 0
    - path: 3216976300
      attribute: 1
      script: {fileID: 0}
      classID: 4
      customType: 0
      isPPtrCurve: 0
    - path: 1370572928
      attribute: 1
      script: {fileID: 0}
      classID: 4
      customType: 0
      isPPtrCurve: 0
    - path: 649492502
      attribute: 1
      script: {fileID: 0}
      classID: 4
      customType: 0
      isPPtrCurve: 0
    - path: 3216976300
      attribute: 2086281974
      script: {fileID: 0}
      classID: 1
      customType: 0
      isPPtrCurve: 0
    - path: 3216976300
      attribute: 304273561
      script: {fileID: 0}
      classID: 212
      customType: 0
      isPPtrCurve: 0
    - path: 0
      attribute: 0
      script: {fileID: 0}
      classID: 212
      customType: 23
      isPPtrCurve: 1
    pptrCurveMapping:
    - {fileID: 0}
  m_AnimationClipSettings:
    serializedVersion: 2
    m_AdditiveReferencePoseClip: {fileID: 0}
    m_AdditiveReferencePoseTime: 0
    m_StartTime: 0
    m_StopTime: 11.833333
    m_OrientationOffsetY: 0
    m_Level: 0
    m_CycleOffset: 0
    m_HasAdditiveReferencePose: 0
    m_LoopTime: 1
    m_LoopBlend: 0
    m_LoopBlendOrientation: 0
    m_LoopBlendPositionY: 0
    m_LoopBlendPositionXZ: 0
    m_KeepOriginalOrientation: 0
    m_KeepOriginalPositionY: 1
    m_KeepOriginalPositionXZ: 0
    m_HeightFromFeet: 0
    m_Mirror: 0
  m_EditorCurves:
  - curve:
      serializedVersion: 2
      m_Curve:
      - time: 0
        value: 21.97
        inSlope: -4.661111
        outSlope: -4.661111
        tangentMode: 10
      - time: 9
        value: -19.98
        inSlope: -4.661111
        outSlope: -4.661111
        tangentMode: 10
      m_PreInfinity: 2
      m_PostInfinity: 2
      m_RotationOrder: 4
    attribute: m_LocalPosition.x
    path: Clouds_1
    classID: 4
    script: {fileID: 0}
  - curve:
      serializedVersion: 2
      m_Curve:
      - time: 0
        value: 4.57
        inSlope: 0
        outSlope: 0
        tangentMode: 10
      - time: 9
        value: 4.57
        inSlope: 0
        outSlope: 0
        tangentMode: 10
      m_PreInfinity: 2
      m_PostInfinity: 2
      m_RotationOrder: 4
    attribute: m_LocalPosition.y
    path: Clouds_1
    classID: 4
    script: {fileID: 0}
  - curve:
      serializedVersion: 2
      m_Curve:
      - time: 0
        value: 0.010844566
        inSlope: 0
        outSlope: 0
        tangentMode: 10
      - time: 9
        value: 0.010844566
        inSlope: 0
        outSlope: 0
        tangentMode: 10
      m_PreInfinity: 2
      m_PostInfinity: 2
      m_RotationOrder: 4
    attribute: m_LocalPosition.z
    path: Clouds_1
    classID: 4
    script: {fileID: 0}
  - curve:
      serializedVersion: 2
      m_Curve:
      - time: 0
        value: 26.23
        inSlope: -4.7129197
        outSlope: -4.7129197
        tangentMode: 10
      - time: 9.416667
        value: -18.15
        inSlope: -1.1782773
        outSlope: -1.1782773
        tangentMode: 10
      - time: 10.333333
        value: -15.99
        inSlope: 1.001933
        outSlope: 1.001933
        tangentMode: 10
      - time: 11.666667
        value: -16.46
        inSlope: 215.82457
        outSlope: 215.82457
        tangentMode: 10
      - time: 11.75
        value: 19.54
        inSlope: 232.26088
        outSlope: 232.26088
        tangentMode: 10
      - time: 11.833333
        value: 22.25
        inSlope: 32.520115
        outSlope: 32.520115
        tangentMode: 10
      m_PreInfinity: 2
      m_PostInfinity: 2
      m_RotationOrder: 4
    attribute: m_LocalPosition.x
    path: Clouds_0
    classID: 4
    script: {fileID: 0}
  - curve:
      serializedVersion: 2
      m_Curve:
      - time: 0
        value: 2.43
        inSlope: 0
        outSlope: 0
        tangentMode: 10
      - time: 9.416667
        value: 2.43
        inSlope: 0
        outSlope: 0
        tangentMode: 10
      - time: 10.333333
        value: 2.43
        inSlope: 0
        outSlope: 0
        tangentMode: 10
      - time: 11.666667
        value: 2.43
        inSlope: 0
        outSlope: 0
        tangentMode: 10
      - time: 11.75
        value: 2.43
        inSlope: 0
        outSlope: 0
        tangentMode: 10
      - time: 11.833333
        value: 2.43
        inSlope: 0
        outSlope: 0
        tangentMode: 10
      m_PreInfinity: 2
      m_PostInfinity: 2
      m_RotationOrder: 4
    attribute: m_LocalPosition.y
    path: Clouds_0
    classID: 4
    script: {fileID: 0}
  - curve:
      serializedVersion: 2
      m_Curve:
      - time: 0
        value: 0.010844566
        inSlope: 0
        outSlope: 0
        tangentMode: 10
      - time: 9.416667
        value: 0.010844566
        inSlope: 0
        outSlope: 0
        tangentMode: 10
      - time: 10.333333
        value: 0.010844566
        inSlope: 0
        outSlope: 0
        tangentMode: 10
      - time: 11.666667
        value: 0.010844566
        inSlope: 0
        outSlope: 0
        tangentMode: 10
      - time: 11.75
        value: 0.010844566
        inSlope: 0
        outSlope: 0
        tangentMode: 10
      - time: 11.833333
        value: 0.010844566
        inSlope: 0
        outSlope: 0
        tangentMode: 10
      m_PreInfinity: 2
      m_PostInfinity: 2
      m_RotationOrder: 4
    attribute: m_LocalPosition.z
    path: Clouds_0
    classID: 4
    script: {fileID: 0}
  - curve:
      serializedVersion: 2
      m_Curve:
      - time: 0
        value: 43.15
        inSlope: -5.5400004
        outSlope: -5.5400004
        tangentMode: 10
      - time: 11
        value: -17.79
        inSlope: -5.5400004
        outSlope: -5.5400004
        tangentMode: 10
      m_PreInfinity: 2
      m_PostInfinity: 2
      m_RotationOrder: 4
    attribute: m_LocalPosition.x
    path: Clouds_2
    classID: 4
    script: {fileID: 0}
  - curve:
      serializedVersion: 2
      m_Curve:
      - time: 0
        value: -0.2411091
        inSlope: 0
        outSlope: 0
        tangentMode: 10
      - time: 11
        value: -0.2411091
        inSlope: 0
        outSlope: 0
        tangentMode: 10
      m_PreInfinity: 2
      m_PostInfinity: 2
      m_RotationOrder: 4
    attribute: m_LocalPosition.y
    path: Clouds_2
    classID: 4
    script: {fileID: 0}
  - curve:
      serializedVersion: 2
      m_Curve:
      - time: 0
        value: 0.010844566
        inSlope: 0
        outSlope: 0
        tangentMode: 10
      - time: 11
        value: 0.010844566
        inSlope: 0
        outSlope: 0
        tangentMode: 10
      m_PreInfinity: 2
      m_PostInfinity: 2
      m_RotationOrder: 4
    attribute: m_LocalPosition.z
    path: Clouds_2
    classID: 4
    script: {fileID: 0}
  - curve:
      serializedVersion: 2
      m_Curve:
      - time: 0
        value: 29.52
        inSlope: -6.4207406
        outSlope: -6.4207406
        tangentMode: 10
      - time: 6.75
        value: -13.82
        inSlope: -6.4207406
        outSlope: -6.4207406
        tangentMode: 10
      m_PreInfinity: 2
      m_PostInfinity: 2
      m_RotationOrder: 4
    attribute: m_LocalPosition.x
    path: Clouds_3
    classID: 4
    script: {fileID: 0}
  - curve:
      serializedVersion: 2
      m_Curve:
      - time: 0
        value: -0.2411091
        inSlope: 0
        outSlope: 0
        tangentMode: 10
      - time: 6.75
        value: -0.2411091
        inSlope: 0
        outSlope: 0
        tangentMode: 10
      m_PreInfinity: 2
      m_PostInfinity: 2
      m_RotationOrder: 4
    attribute: m_LocalPosition.y
    path: Clouds_3
    classID: 4
    script: {fileID: 0}
  - curve:
      serializedVersion: 2
      m_Curve:
      - time: 0
        value: 0.010844566
        inSlope: 0
        outSlope: 0
        tangentMode: 10
      - time: 6.75
        value: 0.010844566
        inSlope: 0
        outSlope: 0
        tangentMode: 10
      m_PreInfinity: 2
      m_PostInfinity: 2
      m_RotationOrder: 4
    attribute: m_LocalPosition.z
    path: Clouds_3
    classID: 4
    script: {fileID: 0}
  - curve:
      serializedVersion: 2
      m_Curve:
      - time: 0
        value: 1
        inSlope: Infinity
        outSlope: Infinity
        tangentMode: 31
      - time: 11.666667
        value: 0
        inSlope: Infinity
        outSlope: Infinity
        tangentMode: 31
      - time: 11.833333
        value: 1
        inSlope: Infinity
        outSlope: Infinity
        tangentMode: 31
      m_PreInfinity: 2
      m_PostInfinity: 2
      m_RotationOrder: 4
    attribute: m_IsActive
    path: Clouds_0
    classID: 1
    script: {fileID: 0}
  - curve:
      serializedVersion: 2
      m_Curve:
      - time: 0
        value: 0.616
        inSlope: -0.05242553
        outSlope: -0.05242553
        tangentMode: 10
      - time: 11.75
        value: 0
        inSlope: 5.97381
        outSlope: 5.97381
        tangentMode: 10
      - time: 11.833333
        value: 1
        inSlope: 12.000046
        outSlope: 12.000046
        tangentMode: 10
      m_PreInfinity: 2
      m_PostInfinity: 2
      m_RotationOrder: 4
    attribute: m_Color.a
    path: Clouds_0
    classID: 212
    script: {fileID: 0}
  m_EulerEditorCurves: []
  m_HasGenericRootTransform: 0
  m_HasMotionFloatCurves: 0
  m_GenerateMotionCurves: 0
  m_Events: []
